{
    "dominik": {
        "1": {
            "best_time": 9060,
            "wins": 1
        },
        "2": {
            "best_time": 0,
            "wins": 0
        }
    },
    "antek": {
        "1": {
            "best_time": 27060,
            "wins": 0
        },
        "2": {
            "best_time": 0,
            "wins": 0
        }
    }
}